<?xml version="1.0" encoding="UTF-8" standalone="no"?>
<svg
   xmlns:dc="http://purl.org/dc/elements/1.1/"
   xmlns:cc="http://creativecommons.org/ns#"
   xmlns:rdf="http://www.w3.org/1999/02/22-rdf-syntax-ns#"
   xmlns:svg="http://www.w3.org/2000/svg"
   xmlns="http://www.w3.org/2000/svg"
   xmlns:sodipodi="http://sodipodi.sourceforge.net/DTD/sodipodi-0.dtd"
   xmlns:inkscape="http://www.inkscape.org/namespaces/inkscape"
   id="svg3177"
   version="1.1"
   viewBox="0 0 44.753727 44.76173"
   height="44.76173mm"
   width="44.753727mm"
   inkscape:version="0.92.4 (unknown)"
   sodipodi:docname="ryf-logo.svg">
  <sodipodi:namedview
     pagecolor="#ffffff"
     bordercolor="#666666"
     borderopacity="1"
     objecttolerance="10"
     gridtolerance="10"
     guidetolerance="10"
     inkscape:pageopacity="0"
     inkscape:pageshadow="2"
     inkscape:window-width="1230"
     inkscape:window-height="736"
     id="namedview3432"
     showgrid="false"
     showguides="true"
     inkscape:zoom="40.969697"
     inkscape:cx="6.946367"
     inkscape:cy="87.619364"
     inkscape:window-x="50"
     inkscape:window-y="27"
     inkscape:window-maximized="1"
     inkscape:current-layer="svg3177" />
  <defs
     id="defs3171" />
  <metadata
     id="metadata3174">
    <rdf:RDF>
      <cc:Work
         rdf:about="">
        <dc:format>image/svg+xml</dc:format>
        <dc:type
           rdf:resource="http://purl.org/dc/dcmitype/StillImage" />
        <dc:title></dc:title>
      </cc:Work>
    </rdf:RDF>
  </metadata>
  <path
     inkscape:connector-curvature="0"
     d="m 44.246409,22.38087 a 21.869546,21.869546 0 1 1 -43.7390907,0 21.869546,21.869546 0 1 1 43.7390907,0 z"
     id="path15755"
     style="display:inline;opacity:1;fill:#000000;fill-opacity:1;fill-rule:evenodd;stroke:none;stroke-width:0.32970473;stroke-linecap:butt;stroke-linejoin:miter;stroke-miterlimit:4;stroke-dasharray:none;stroke-dashoffset:0;stroke-opacity:1" />
  <path
     inkscape:connector-curvature="0"
     style="display:inline;fill:#ffffff;fill-opacity:1;fill-rule:evenodd;stroke:none;stroke-width:0.09243187;stroke-miterlimit:4;stroke-dasharray:none;stroke-dashoffset:28.24151993;stroke-opacity:1"
     id="path15757"
     d="m 44.16294,22.38087 a 21.786077,21.786077 0 1 1 -43.572153,0 21.786077,21.786077 0 1 1 43.572153,0 z" />
  <path
     inkscape:connector-curvature="0"
     d="M 36.310036,16.029907 C 32.802498,8.3348267 23.720981,4.9401567 16.025902,8.4476867 8.3308221,11.955227 4.9361494,21.036747 8.4436881,28.731827 c 3.5075379,7.69508 12.5890549,11.08975 20.2841339,7.58221 7.69508,-3.50754 11.089753,-12.58905 7.582214,-20.28413 z"
     id="path15759"
     style="fill:#000000;fill-opacity:1;fill-rule:evenodd;stroke:#000000;stroke-width:0.32043046;stroke-miterlimit:4;stroke-dasharray:none;stroke-opacity:1" />
  <path
     inkscape:connector-curvature="0"
     d="m 9.7423414,31.031693 c 4.7777246,6.97786 14.3075046,8.76142 21.2853556,3.98369 6.977852,-4.77772 8.76141,-14.3075 3.983686,-21.28535 C 30.233659,6.7521726 20.703882,4.9686226 13.726032,9.7463426 6.7481764,14.524063 4.9646204,24.053843 9.7423414,31.031693 Z"
     id="path15761"
     style="fill:none;fill-rule:evenodd;stroke:#000000;stroke-width:0.73945481;stroke-miterlimit:4;stroke-opacity:1" />
  <path
     inkscape:connector-curvature="0"
     id="path15763"
     d="m 22.340636,9.109045 c -0.655171,0.0156 -1.200481,0.5197 -1.276835,1.1625 -1.609522,0.0563 -4.15755,0.3096 -4.593549,1.34014 -0.10055,0.23765 -0.162536,0.69439 -0.219044,1.31174 1.26225,0.1423 2.917576,0.2589 4.746638,0.29884 2.360406,0.0515 5.01666,-0.0232 7.502025,-0.32881 -0.05575,-0.60208 -0.11736,-1.04797 -0.216275,-1.28177 -0.438155,-1.03564 -3.00071,-1.28627 -4.603659,-1.34098 -0.07618,-0.63775 -0.613881,-1.14286 -1.270458,-1.16154 -0.02306,-6.5e-4 -0.04603,-6.7e-4 -0.06884,-1.2e-4 z m 0.04959,0.67771 c 0.290887,0.008 0.527233,0.2032903 0.598761,0.46987 -0.02644,-1.3e-4 -0.05708,-5.6e-4 -0.08208,-6.1e-4 -0.306816,-5.6e-4 -0.498811,0.005 -0.524503,0.006 h -0.0106 c -0.02415,-7.7e-4 -0.183989,-0.006 -0.467576,-0.006 -0.04518,0 -0.09903,5.6e-4 -0.149237,8.4e-4 0.07455,-0.2795797 0.329396,-0.47894 0.635228,-0.47022 z m 6.1265,3.29084 c -2.499407,0.30579 -5.157604,0.37738 -7.525134,0.32568 -1.830948,-0.04 -3.484173,-0.15436 -4.75687,-0.29703 -0.01146,0.13348 -0.02324,0.28647 -0.03478,0.43303 1.26846,0.14491 2.94419,0.26414 4.797911,0.30462 2.376664,0.0519 5.053451,-0.0241 7.553538,-0.33495 -0.0115,-0.14554 -0.0232,-0.29892 -0.03466,-0.43135 z m 0.04946,0.61573 c -2.513725,0.31092 -5.191488,0.38362 -7.574599,0.33158 -1.854152,-0.0405 -3.527346,-0.15712 -4.806335,-0.30233 -0.252078,3.25698 -0.644211,9.32858 -3.996715,13.90582 1.526153,0.40309 4.491255,0.82992 7.95251,0.98461 3.713782,0.16598 8.014072,0.024 11.752567,-0.77989 0.287507,-0.0577 0.515418,-0.11127 0.703467,-0.16043 -3.393101,-4.59679 -3.778241,-10.71963 -4.030895,-13.97936 z m -16.56793,14.18817 c -0.419407,0.54736 -0.882003,1.07209 -1.394782,1.56533 -4.0339773,3.8803 10.774663,3.93114 11.685891,3.93064 4.65e-4,2e-5 9.31e-4,2.3e-4 0.0014,2.3e-4 h 0.160554 c 4.65e-4,0 9.31e-4,-2.3e-4 0.0014,-2.3e-4 0.827062,7e-4 15.744173,-0.0383 11.697685,-3.93064 -0.497347,-0.4784 -0.947863,-0.98622 -1.357234,-1.51574 -0.215257,0.0591 -0.490241,0.12322 -0.845366,0.19449 -3.776455,0.81201 -8.086141,0.94667 -11.817558,0.7799 -3.565926,-0.15938 -6.592863,-0.5976 -8.131956,-1.02398 z"
     style="fill:#ffffff;fill-opacity:1;fill-rule:evenodd;stroke:none;stroke-width:0.49296987;stroke-linecap:butt;stroke-linejoin:miter;stroke-miterlimit:4;stroke-dasharray:none;stroke-opacity:1" />
  <path
     inkscape:connector-curvature="0"
     id="path15769"
     d="M 22.297557,1.26938 C 21.07618,1.27338 19.869767,1.38399 18.688502,1.59445 10.58839,3.03759 3.7326395,9.17597 1.7908025,17.70143 c -0.659878,2.89713 -0.688498,5.79074 -0.177161,8.53742 0.02465,0.16459 0.0508,0.32865 0.07907,0.49201 l 0.01866,0 C 3.3601655,34.54468 9.3953885,41.08245 17.691975,42.97215 29.059253,45.56127 40.373583,38.44911 42.9627,27.08181 45.551817,15.71452 38.428828,4.38937 27.061532,1.80026 25.463005,1.43616 23.8679,1.26441 22.297561,1.26938 Z m 0.0021,0.33145 c 1.54901,-0.004 3.123045,0.16593 4.696817,0.52438 8.164919,1.85972 14.097983,8.2927 15.720033,15.98193 l -40.6728405,0 c 0.0232,-0.10996 0.04704,-0.21991 0.07209,-0.32989 C 4.0275255,9.38379 10.770367,3.3387 18.74266,1.91941 19.905274,1.71243 21.094939,1.60399 22.299722,1.60083 Z m -20.2489555,25.13003 40.6476315,0 c -0.01961,0.0917 -0.03977,0.18341 -0.06066,0.27513 C 40.08865,38.19725 28.959004,45.19622 17.767726,42.6472 9.6228405,40.79204 3.6929925,34.39191 2.0506995,26.73086 Z"
     style="color:#000000;font-style:normal;font-variant:normal;font-weight:normal;font-stretch:normal;font-size:medium;line-height:normal;font-family:sans-serif;text-indent:0;text-align:start;text-decoration:none;text-decoration-line:none;text-decoration-style:solid;text-decoration-color:#000000;letter-spacing:normal;word-spacing:normal;text-transform:none;direction:ltr;writing-mode:lr-tb;baseline-shift:baseline;text-anchor:start;white-space:normal;clip-rule:nonzero;display:inline;overflow:visible;visibility:visible;opacity:1;isolation:auto;mix-blend-mode:normal;color-interpolation:sRGB;color-interpolation-filters:linearRGB;solid-color:#000000;solid-opacity:1;fill:#000000;fill-opacity:1;fill-rule:nonzero;stroke:none;stroke-width:0.33402041;stroke-linecap:butt;stroke-linejoin:miter;stroke-miterlimit:4;stroke-dasharray:none;stroke-dashoffset:0;stroke-opacity:1;color-rendering:auto;image-rendering:auto;shape-rendering:auto;text-rendering:auto;enable-background:accumulate" />
  <path
     inkscape:connector-curvature="0"
     d="m 40.946994,25.7501 -0.06647,-4.18851 c -0.0054,-0.33778 0.0122,-0.82194 0.05269,-1.45249 -0.171369,0.93299 -0.28099,1.48153 -0.328867,1.6456 l -0.551061,2.25852 -1.031801,4.7e-4 -0.632203,-2.25812 c -0.09702,-0.34739 -0.225625,-0.89585 -0.38582,-1.64536 l 0.04076,0.48253 c 0.02745,0.33779 0.04359,0.66109 0.04853,0.96991 l 0.06647,4.18851 -1.041267,4.7e-4 -0.1033,-6.50956 1.642361,-5.6e-4 0.67717,2.40769 c 0.04975,0.15118 0.115576,0.52273 0.197545,1.11462 0.05518,-0.49865 0.112428,-0.86862 0.171712,-1.10992 l 0.605408,-2.41295 1.585566,-5.6e-4 0.103297,6.50956 -1.050734,4.6e-4 m -4.684731,-3.27519 c 0.01761,1.10986 -0.189946,1.94956 -0.622654,2.51912 -0.432717,0.56955 -1.062426,0.85447 -1.889127,0.85475 -0.826703,2.4e-4 -1.467025,-0.2842 -1.920964,-0.85346 -0.450785,-0.56925 -0.684984,-1.4088 -0.702596,-2.51866 -0.01761,-1.10986 0.190043,-1.94313 0.622961,-2.49982 0.436071,-0.55668 1.067458,-0.83517 1.894162,-0.83546 0.826701,-2.5e-4 1.465341,0.27778 1.915926,0.83416 0.450574,0.55639 0.684675,1.38951 0.702292,2.49937 m -1.415177,4.9e-4 c -0.02344,-1.47659 -0.418527,-2.21476 -1.185275,-2.2145 -0.769909,2.6e-4 -1.143146,0.73869 -1.119712,2.21528 0.01176,0.73991 0.116885,1.30124 0.315441,1.68399 0.201649,0.37954 0.493376,0.56924 0.875179,0.56911 0.381796,-1.2e-4 0.665922,-0.19002 0.852376,-0.5697 0.186399,-0.38288 0.273724,-0.94428 0.261988,-1.68418 m -4.434428,-0.0274 c 0.01684,1.06161 -0.213154,1.8788 -0.689985,2.45159 -0.476893,0.56957 -1.164975,0.85451 -2.064248,0.85481 l -1.992606,7e-4 -0.1033,-6.50955 1.708625,-5.6e-4 c 1.034953,-3.7e-4 1.812226,0.26479 2.331822,0.79541 0.522691,0.52742 0.792586,1.32996 0.809692,2.40765 m -1.405709,4.9e-4 c -0.0116,-0.73025 -0.155721,-1.26262 -0.432387,-1.5971 -0.273568,-0.33768 -0.71011,-0.50643 -1.309625,-0.50623 l -0.288713,1.3e-4 0.06838,4.30914 0.482772,-1.8e-4 c 1.009707,-4.7e-4 1.502899,-0.7356 1.479574,-2.20576 m -9.142949,3.30858 -0.103297,-6.50956 4.581573,-0.002 0.01747,1.10021 -3.185329,10e-4 0.02479,1.56345 2.896616,-9.8e-4 0.01747,1.10021 -2.896616,9.8e-4 0.02612,1.64548 3.379383,-0.001 0.01747,1.10021 -4.77563,0.002 m -5.811302,0.002 -0.103298,-6.50956 4.581574,-0.002 0.01747,1.10021 -3.185329,0.001 0.02479,1.56346 2.896616,-9.8e-4 0.01747,1.1002 -2.896616,9.8e-4 0.02612,1.64549 3.379384,-0.001 0.01747,1.10021 -4.775628,0.002 m -2.223665,7e-4 -1.412017,-2.48465 -0.818812,3e-4 0.03943,2.48512 -1.396244,4.7e-4 -0.103298,-6.50956 2.338117,-7.9e-4 c 0.83301,-2.6e-4 1.458822,0.16518 1.877435,0.49639 0.418606,0.33122 0.632862,0.80886 0.642769,1.43295 0.007,0.44074 -0.103812,0.81555 -0.332405,1.12446 -0.228596,0.30891 -0.548578,0.52617 -0.959934,0.65176 l 1.696319,2.80304 -1.571366,4.7e-4 m -0.237399,-4.52113 c -0.0048,-0.30239 -0.106141,-0.52433 -0.304015,-0.66582 -0.197934,-0.14469 -0.51146,-0.21696 -0.940586,-0.21683 l -0.795151,2.6e-4 0.02878,1.81438 0.833015,-3.1e-4 c 0.795144,-2.5e-4 1.187793,-0.31084 1.177944,-0.93172 m -7.709102,-0.88527 0.02939,1.85298 2.939214,-0.001 0.01747,1.10021 -2.939213,0.001 0.03899,2.45616 -1.396242,4.7e-4 -0.1033,-6.50956 4.444317,-0.002 0.01747,1.10021 -3.048072,0.001"
     style="font-style:normal;font-variant:normal;font-weight:bold;font-stretch:normal;font-size:1.76480865px;line-height:125%;font-family:Cousine;-inkscape-font-specification:'Cousine Bold';letter-spacing:-0.00016044px;word-spacing:0px;fill:#ffffff;fill-opacity:1;fill-rule:evenodd;stroke:none;stroke-width:5.54591131"
     id="path15771" />
  <g
     aria-label="RESPECTS YOUR"
     style="font-style:normal;font-variant:normal;font-weight:bold;font-stretch:semi-condensed;font-size:4.58611107px;line-height:0%;font-family:'DejaVu Sans';-inkscape-font-specification:'DejaVu Sans Bold Semi-Condensed';text-align:start;letter-spacing:0px;word-spacing:0px;writing-mode:lr-tb;text-anchor:start;fill:#000000;fill-opacity:1;stroke:none;stroke-width:1px;stroke-linecap:butt;stroke-linejoin:miter;stroke-opacity:1"
     id="text3344">
    <path
       d="M 9.0268814,12.375514 7.7089178,12.2544 7.4887422,12.573151 8.4376256,13.228587 8.0621818,13.772122 5.5766602,12.055262 6.2053695,11.145071 q 0.3359904,-0.486417 0.6924896,-0.596697 0.3564991,-0.110279 0.7139426,0.136623 0.1363444,0.09418 0.2201674,0.209233 0.083823,0.115054 0.121488,0.24177 0.035823,0.125443 0.031718,0.261409 -0.00595,0.134693 -0.050417,0.269993 l 1.5146569,0.0964 z m -1.770959,-1.128025 q -0.093967,-0.06491 -0.1813628,-0.07629 -0.086123,-0.01322 -0.1668141,0.02085 -0.082534,0.0328 -0.1614779,0.111631 -0.079514,0.07571 -0.1584209,0.189947 l -0.2138121,0.309538 0.692777,0.478532 0.2239936,-0.324278 Q 7.4588004,11.714218 7.4448797,11.541306 7.4291166,11.367122 7.2559224,11.247489 Z"
       style="font-style:normal;font-variant:normal;font-weight:bold;font-stretch:normal;font-size:4.58611107px;font-family:Cousine;-inkscape-font-specification:'Cousine Bold'"
       id="path828" />
    <path
       d="M 9.6675367,11.536318 7.4981349,9.4341477 9.0065865,7.8774532 9.3732459,8.2327496 8.3244981,9.3150383 8.8455405,9.8199332 9.799231,8.835742 10.16589,9.1910385 9.2122,10.17523 9.760581,10.706616 10.87322,9.558393 11.239879,9.9136894 Z"
       style="font-style:normal;font-variant:normal;font-weight:bold;font-stretch:normal;font-size:4.58611107px;font-family:Cousine;-inkscape-font-specification:'Cousine Bold'"
       id="path830" />
    <path
       d="m 12.953349,7.5252651 q 0.116895,0.1586438 0.156556,0.3408186 0.03833,0.180372 -0.013,0.3711811 -0.05133,0.1908091 -0.19764,0.3848443 -0.146309,0.1940352 -0.398697,0.3800054 -0.423651,0.3121642 -0.821969,0.330287 -0.398317,0.018123 -0.725093,-0.2668098 l 0.46464,-0.4452847 q 0.16633,0.1389082 0.370991,0.1410904 0.203334,3.794e-4 0.432286,-0.1683221 0.108166,-0.079702 0.180941,-0.1583593 0.07458,-0.079986 0.109305,-0.1612058 0.03473,-0.08122 0.02334,-0.1646215 -0.01271,-0.085205 -0.07648,-0.1717376 -0.07173,-0.09735 -0.174585,-0.1161363 -0.102378,-0.021918 -0.219938,0.00351 -0.117085,0.022297 -0.242045,0.075432 -0.126289,0.051332 -0.245367,0.09735 -0.101999,0.038997 -0.215668,0.08103 -0.113195,0.038902 -0.230755,0.064331 -0.11756,0.025429 -0.235404,0.031596 -0.119173,0.00436 -0.233127,-0.025713 -0.113954,-0.030078 -0.220412,-0.099057 -0.105984,-0.072111 -0.197641,-0.196502 -0.130179,-0.1766715 -0.148776,-0.3604593 -0.01812,-0.1869189 0.04877,-0.3641598 0.06556,-0.1790437 0.202195,-0.3409136 0.135303,-0.1636727 0.31558,-0.2965086 0.40382,-0.2975523 0.749193,-0.3044789 0.344045,-0.00873 0.657822,0.2774367 l -0.47707,0.4321909 q -0.160541,-0.1348282 -0.324404,-0.1420392 -0.163862,-0.00721 -0.338731,0.1216397 -0.113574,0.083687 -0.172022,0.1629137 -0.05797,0.076096 -0.07562,0.1502942 -0.01717,0.071067 1.9e-4,0.1361567 0.01784,0.061958 0.05769,0.1160415 0.06376,0.086533 0.151338,0.1110127 0.08625,0.022677 0.186255,0.0074 0.101809,-0.016604 0.215478,-0.058638 0.114144,-0.045164 0.230091,-0.091657 0.112815,-0.046967 0.236352,-0.090708 0.122209,-0.045544 0.250111,-0.075811 0.126574,-0.03207 0.254286,-0.039946 0.126384,-0.00968 0.247074,0.018217 0.120691,0.027895 0.232937,0.1009551 0.114049,0.071731 0.21102,0.2033335 z"
       style="font-style:normal;font-variant:normal;font-weight:bold;font-stretch:normal;font-size:4.58611107px;font-family:Cousine;-inkscape-font-specification:'Cousine Bold'"
       id="path832" />
    <path
       d="m 14.936729,5.1429956 q 0.09223,0.1817101 0.11344,0.3768685 0.02219,0.192148 -0.04178,0.3778063 -0.06397,0.1856583 -0.221178,0.3558563 -0.158217,0.1682013 -0.423794,0.3030013 l -0.393372,0.1996661 0.482442,0.9504837 -0.58906,0.2989924 -1.367257,-2.6937027 0.958471,-0.4864961 q 0.26957,-0.1368271 0.49766,-0.1772625 0.227077,-0.042432 0.412615,0.00151 0.185537,0.043945 0.327507,0.1702739 0.143968,0.1253153 0.244307,0.3229999 z M 14.348743,5.4539992 Q 14.238268,5.2363464 14.059856,5.2113862 13.882427,5.1834156 13.620844,5.3161885 l -0.303516,0.1540571 0.422644,0.8326717 0.31949,-0.1621654 q 0.26358,-0.1337865 0.330654,-0.30344 0.06606,-0.1716504 -0.04137,-0.3833127 z"
       style="font-style:normal;font-variant:normal;font-weight:bold;font-stretch:normal;font-size:4.58611107px;font-family:Cousine;-inkscape-font-specification:'Cousine Bold'"
       id="path834" />
    <path
       d="M 16.342392,6.8045537 15.4342,3.9234753 l 2.067371,-0.6516901 0.153497,0.4869428 -1.437335,0.4530862 0.218127,0.6919714 1.307057,-0.412019 0.153498,0.4869429 -1.307057,0.4120189 0.229572,0.7282786 1.5249,-0.4806888 0.153497,0.4869428 z"
       style="font-style:normal;font-variant:normal;font-weight:bold;font-stretch:normal;font-size:4.58611107px;font-family:Cousine;-inkscape-font-specification:'Cousine Bold'"
       id="path836" />
    <path
       d="m 19.306176,4.4389766 q 0.07096,0.498823 0.264629,0.7472187 0.193667,0.2483957 0.501829,0.2045568 0.09976,-0.014193 0.176116,-0.065768 0.07635,-0.051575 0.130552,-0.1316652 0.0561,-0.082622 0.09068,-0.1893254 0.0368,-0.1070186 0.05777,-0.2298807 l 0.621639,0.029183 q -0.0375,0.2292591 -0.116786,0.4192246 -0.07738,0.1874332 -0.201923,0.3295525 -0.122639,0.139587 -0.294971,0.2319585 -0.17043,0.089839 -0.396563,0.1220088 -0.336983,0.047939 -0.594404,-0.028533 -0.257737,-0.078689 -0.441942,-0.2605752 -0.184205,-0.181886 -0.298051,-0.4574701 -0.113846,-0.275584 -0.163677,-0.6258685 -0.05267,-0.3702375 -0.01766,-0.6647356 0.03501,-0.294498 0.162444,-0.5116704 0.129652,-0.2174877 0.352677,-0.3509988 0.223026,-0.1335112 0.54449,-0.1792425 0.230567,-0.0328 0.417072,0.00626 0.188723,0.038746 0.338142,0.1351065 0.151322,0.093828 0.267143,0.2402049 0.115506,0.14416 0.199956,0.3244042 l -0.582206,0.232107 q -0.04396,-0.1023156 -0.103447,-0.186589 -0.05727,-0.084589 -0.128808,-0.1422678 -0.07154,-0.057679 -0.154179,-0.082112 -0.08074,-0.026966 -0.171635,-0.014035 -0.301511,0.042893 -0.415682,0.3215101 -0.114485,0.2764004 -0.04321,0.7774403 z"
       style="font-style:normal;font-variant:normal;font-weight:bold;font-stretch:normal;font-size:4.58611107px;font-family:Cousine;-inkscape-font-specification:'Cousine Bold'"
       id="path838" />
    <path
       d="m 23.171938,3.2109907 -0.05885,2.5095789 -0.660416,-0.015486 0.05885,-2.5095789 -0.908911,-0.021313 0.01197,-0.5104229 2.478237,0.058113 -0.01197,0.5104228 z"
       style="font-style:normal;font-variant:normal;font-weight:bold;font-stretch:normal;font-size:4.58611107px;font-family:Cousine;-inkscape-font-specification:'Cousine Bold'"
       id="path840" />
    <path
       d="m 26.889537,5.3762793 q -0.03708,0.1935404 -0.143871,0.3463646 -0.106375,0.1506248 -0.2813,0.2425175 -0.174925,0.091893 -0.416715,0.1162559 -0.24179,0.024363 -0.549695,-0.034619 -0.516841,-0.099007 -0.800632,-0.3790929 -0.28379,-0.2800862 -0.296535,-0.713453 l 0.642395,0.038697 q 0.01098,0.2164264 0.148361,0.3681444 0.1378,0.1495187 0.417114,0.2030245 0.131959,0.025278 0.239119,0.025286 0.109359,4.287e-4 0.192562,-0.029233 0.0832,-0.029662 0.136694,-0.094656 0.05391,-0.067194 0.07414,-0.172761 0.02275,-0.1187634 -0.0333,-0.2070222 -0.05343,-0.090037 -0.151932,-0.1590658 -0.09588,-0.070807 -0.219739,-0.1264546 -0.12344,-0.057847 -0.238083,-0.1140085 -0.09789,-0.048393 -0.205937,-0.1032903 -0.105424,-0.056676 -0.203923,-0.1257048 -0.0985,-0.069029 -0.18305,-0.1513468 -0.08413,-0.084517 -0.139435,-0.1885925 -0.0553,-0.1040753 -0.07696,-0.2290655 -0.01904,-0.1267682 0.01003,-0.2785215 0.04129,-0.2155336 0.163572,-0.3539907 0.124905,-0.1402351 0.300437,-0.2114912 0.175953,-0.073456 0.38756,-0.083081 0.212027,-0.011824 0.43196,0.030306 0.492648,0.094372 0.732266,0.3431966 0.24004,0.2466249 0.243052,0.6712872 L 26.426462,3.9491953 Q 26.416416,3.7397882 26.310434,3.614605 26.204453,3.4894217 25.991119,3.4485551 q -0.138558,-0.026542 -0.236406,-0.015646 -0.09523,0.00912 -0.161679,0.046549 -0.06383,0.035653 -0.09982,0.0926 -0.03337,0.055169 -0.04601,0.1211483 -0.02022,0.1055675 0.02128,0.1864784 0.04192,0.078712 0.121048,0.1417497 0.08132,0.063459 0.18937,0.118357 0.110666,0.05312 0.223531,0.1066607 0.111088,0.05092 0.227087,0.111902 0.116422,0.058782 0.225495,0.1321171 0.109495,0.071136 0.202002,0.1595373 0.09293,0.086202 0.154409,0.1937409 0.06148,0.1075385 0.08407,0.239548 0.02479,0.1324308 -0.006,0.2929813 z"
       style="font-style:normal;font-variant:normal;font-weight:bold;font-stretch:normal;font-size:4.58611107px;font-family:Cousine;-inkscape-font-specification:'Cousine Bold'"
       id="path842" />
    <path
       d="M 30.556644,6.4385892 30.007847,7.5561713 29.416895,7.26598 29.965692,6.1483979 29.815761,4.0964473 l 0.621102,0.304997 0.04434,1.4337961 1.16972,-0.8376208 0.621102,0.304997 z"
       style="font-style:normal;font-variant:normal;font-weight:bold;font-stretch:normal;font-size:4.58611107px;font-family:Cousine;-inkscape-font-specification:'Cousine Bold'"
       id="path844" />
    <path
       d="M 33.944588,8.2869192 Q 33.495963,8.9158776 33.010569,9.0565098 32.525176,9.197142 32.047532,8.856447 31.569888,8.515752 31.543,8.009718 31.517934,7.5049842 31.96656,6.8760259 32.415185,6.2470675 32.895377,6.1137276 33.377392,5.981688 33.855036,6.322383 q 0.477644,0.340695 0.50791,0.8381364 0.03027,0.4974415 -0.418358,1.1263998 z M 33.399491,7.8981108 q 0.302984,-0.4247747 0.338718,-0.7101035 0.03573,-0.2853288 -0.184857,-0.4426726 -0.220591,-0.1573439 -0.483163,-0.028314 -0.259449,0.1285076 -0.558532,0.5478132 -0.299084,0.4193055 -0.34262,0.7155727 -0.04041,0.2957445 0.180179,0.4530883 0.220591,0.1573439 0.485241,0.021544 0.26595,-0.1376229 0.565034,-0.5569285 z"
       style="font-style:normal;font-variant:normal;font-weight:bold;font-stretch:normal;font-size:4.58611107px;font-family:Cousine;-inkscape-font-specification:'Cousine Bold'"
       id="path846" />
    <path
       d="m 34.113597,10.60041 q -0.172672,-0.172517 -0.269343,-0.354568 -0.0935,-0.182053 -0.09042,-0.3784004 0.0062,-0.1963484 0.120155,-0.4149132 0.115493,-0.2169821 0.362398,-0.4641084 l 1.299415,-1.3005809 0.467322,0.4669032 -1.294667,1.2958285 q -0.140862,0.1409887 -0.223149,0.2550327 -0.08071,0.11246 -0.107582,0.2058946 -0.02371,0.093433 0.0048,0.1757589 0.03012,0.08074 0.109328,0.159878 0.07921,0.07914 0.164727,0.110766 0.0871,0.03005 0.188432,0.0078 0.10133,-0.02221 0.220051,-0.103022 0.118721,-0.08081 0.262749,-0.224965 L 36.606678,8.7577596 37.074,9.2246628 35.798325,10.501482 q -0.246905,0.247126 -0.473284,0.362818 -0.224796,0.114108 -0.435392,0.115786 -0.207429,0.0017 -0.402236,-0.09799 -0.19164,-0.09967 -0.373816,-0.281683 z"
       style="font-style:normal;font-variant:normal;font-weight:bold;font-stretch:normal;font-size:4.58611107px;font-family:Cousine;-inkscape-font-specification:'Cousine Bold'"
       id="path848" />
    <path
       d="m 36.309736,13.200576 0.561571,-1.198472 -0.225017,-0.315352 -0.938765,0.669846 -0.383699,-0.537739 2.459019,-1.754608 0.642533,0.900486 q 0.343378,0.481231 0.326013,0.853993 -0.01736,0.372762 -0.370998,0.625093 -0.13489,0.09625 -0.271575,0.13601 -0.136685,0.03976 -0.268661,0.03215 -0.130153,-0.0089 -0.256641,-0.05896 -0.124665,-0.05134 -0.236818,-0.139125 l -0.605138,1.391864 z m 1.662483,-1.28253 q 0.09297,-0.06634 0.133353,-0.144669 0.04169,-0.07651 0.03705,-0.16398 -0.0028,-0.08877 -0.05015,-0.189795 -0.0442,-0.100503 -0.124846,-0.213519 l -0.218513,-0.306239 -0.68539,0.489054 0.228918,0.320821 q 0.171689,0.240615 0.339049,0.286253 0.169183,0.04434 0.34053,-0.07793 z"
       style="font-style:normal;font-variant:normal;font-weight:bold;font-stretch:normal;font-size:4.58611107px;font-family:Cousine;-inkscape-font-specification:'Cousine Bold'"
       id="path850" />
  </g>
  <circle
     style="fill:#8ae234;fill-opacity:0"
     id="path3351"
     cx="-30.563965"
     cy="-8.2140741"
     transform="rotate(-150.03769)"
     r="16.669825" />
  <path
     style="fill:#4e9a06;fill-opacity:0;stroke-width:1.01349187"
     d="M 8.2820173,36.286839 A 19.800021,19.800018 7.892991 0 0 36.282836,36.475712 19.800021,19.800018 7.892991 0 0 36.471707,8.4748934 19.800021,19.800018 7.892991 0 0 8.4708881,8.286019 19.800021,19.800018 7.892991 0 0 8.2820173,36.286839 Z"
     id="path4164"
     inkscape:connector-curvature="0" />
  <g
     aria-label="ryf.fsf.org"
     transform="translate(0,-0.26458333)"
     style="font-style:normal;font-variant:normal;font-weight:normal;font-stretch:normal;font-size:4.76249981px;line-height:0%;font-family:Cousine;-inkscape-font-specification:Cousine;letter-spacing:0px;word-spacing:0px;fill:#000000;fill-opacity:1;stroke:none;stroke-width:1px;stroke-linecap:butt;stroke-linejoin:miter;stroke-opacity:1"
     id="text4175">
    <path
       d="m 11.482172,36.324965 q -0.06982,-0.08612 -0.152985,-0.174671 -0.07988,-0.08877 -0.188186,-0.183933 -0.146736,-0.128938 -0.315965,-0.172388 -0.169229,-0.04345 -0.340148,-0.01099 -0.169384,0.03071 -0.332783,0.128591 -0.161653,0.09942 -0.2967305,0.25314 L 9.0756087,37.052116 8.7611734,36.775821 9.8371888,35.55127 q 0.085958,-0.09782 0.1645052,-0.208352 0.07855,-0.110528 0.142856,-0.211898 0.06584,-0.103116 0.113056,-0.188552 0.04721,-0.08544 0.07357,-0.136571 l 0.298714,0.26248 q -0.02461,0.05267 -0.05997,0.117567 -0.03361,0.06643 -0.07357,0.136571 -0.03843,0.06839 -0.08188,0.135459 -0.04345,0.06707 -0.08448,0.120798 l 0.0087,0.0077 q 0.144081,-0.06533 0.274982,-0.105085 0.130902,-0.03976 0.257994,-0.03643 0.128839,0.0049 0.259321,0.0607 0.130483,0.05584 0.273726,0.181706 0.09782,0.08596 0.18448,0.177581 0.08666,0.09162 0.149279,0.16832 z"
       style="font-style:normal;font-variant:normal;font-weight:normal;font-stretch:normal;font-size:4.76249981px;font-family:Cousine;-inkscape-font-specification:Cousine;letter-spacing:0px"
       id="path853" />
    <path
       d="m 11.770572,39.107065 q -0.196391,0.144114 -0.373269,0.245438 -0.178146,0.103274 -0.343404,0.148352 -0.166525,0.04703 -0.320256,0.02747 -0.154999,-0.0176 -0.307044,-0.116509 -0.06628,-0.04311 -0.12027,-0.08378 -0.05399,-0.04067 -0.107495,-0.09489 l 0.171184,-0.263155 q 0.03323,0.02994 0.07875,0.06232 0.04425,0.03433 0.07738,0.05589 0.153995,0.100174 0.36331,0.07266 0.211265,-0.02625 0.468407,-0.216841 l 0.09722,-0.07269 0.441888,-2.683674 0.374265,0.243462 -0.299459,1.58621 q -0.0128,0.06658 -0.03233,0.16484 -0.01826,0.09631 -0.03848,0.191354 -0.01895,0.09309 -0.03681,0.167471 -0.01592,0.07565 -0.02343,0.09572 0.0198,-0.01764 0.07928,-0.06217 0.0627,-0.04521 0.138857,-0.09831 0.07742,-0.05505 0.156118,-0.112056 0.08191,-0.05768 0.142074,-0.099 l 1.30403,-0.929959 0.370367,0.240926 z"
       style="font-style:normal;font-variant:normal;font-weight:normal;font-stretch:normal;font-size:4.76249981px;font-family:Cousine;-inkscape-font-specification:Cousine;letter-spacing:0px"
       id="path855" />
    <path
       d="m 14.933721,38.351214 -0.914175,1.985572 -0.380217,-0.175055 0.914176,-1.985572 -0.553425,-0.254802 0.138098,-0.299949 0.553426,0.254802 0.02431,-0.05281 q 0.09823,-0.213344 0.213746,-0.341922 0.118605,-0.129719 0.267984,-0.176146 0.150352,-0.04854 0.337648,-0.01607 0.189408,0.03344 0.430211,0.144312 0.06126,0.0282 0.143805,0.07133 0.08352,0.04101 0.165094,0.08625 0.08157,0.04524 0.151616,0.08773 0.07215,0.04346 0.112621,0.07233 l -0.141016,0.306286 q -0.0351,-0.02384 -0.10823,-0.06519 -0.07313,-0.04135 -0.155673,-0.08447 -0.07946,-0.04427 -0.154533,-0.08139 -0.0741,-0.03924 -0.114232,-0.05771 -0.139412,-0.06419 -0.252641,-0.09072 -0.113229,-0.02653 -0.207081,-6.2e-4 -0.09385,0.02591 -0.173358,0.10963 -0.07739,0.08469 -0.150333,0.243114 l -0.0097,0.02112 1.037145,0.477511 -0.138099,0.299948 z"
       style="font-style:normal;font-variant:normal;font-weight:normal;font-stretch:normal;font-size:4.76249981px;font-family:Cousine;-inkscape-font-specification:Cousine;letter-spacing:0px"
       id="path857" />
    <path
       d="m 16.499482,41.294514 0.196536,-0.666951 0.524193,0.154468 -0.196537,0.666952 z"
       style="font-style:normal;font-variant:normal;font-weight:normal;font-stretch:normal;font-size:4.76249981px;font-family:Cousine;-inkscape-font-specification:Cousine;letter-spacing:0px"
       id="path859" />
    <path
       d="m 19.782737,39.804234 -0.310453,2.163754 -0.414336,-0.05945 0.310453,-2.163755 -0.603089,-0.08653 0.0469,-0.326865 0.603089,0.08653 0.0083,-0.05755 q 0.03336,-0.232488 0.107447,-0.388655 0.07672,-0.158138 0.206678,-0.245209 0.130286,-0.08937 0.319069,-0.11162 0.191085,-0.02192 0.453498,0.01573 0.06675,0.0096 0.158168,0.02739 0.09174,0.01551 0.182828,0.03563 0.09108,0.02012 0.170329,0.04088 0.08155,0.0211 0.128564,0.03724 l -0.04789,0.333771 q -0.04044,-0.01285 -0.122319,-0.03165 -0.08188,-0.01879 -0.173291,-0.03661 -0.08878,-0.01979 -0.171319,-0.03398 -0.08221,-0.01649 -0.125942,-0.02277 -0.151923,-0.0218 -0.268017,-0.01496 -0.116095,0.0068 -0.198672,0.05842 -0.08258,0.05158 -0.134929,0.154485 -0.05005,0.103234 -0.07482,0.275874 l -0.0033,0.02302 1.130217,0.162163 -0.0469,0.326865 z"
       style="font-style:normal;font-variant:normal;font-weight:normal;font-stretch:normal;font-size:4.76249981px;font-family:Cousine;-inkscape-font-specification:Cousine;letter-spacing:0px"
       id="path861" />
    <path
       d="m 23.433099,41.461328 q 1.68e-4,0.176734 -0.06946,0.318652 -0.0673,0.141916 -0.197432,0.242034 -0.130131,0.09779 -0.320766,0.151459 -0.18831,0.05366 -0.432481,0.0539 -0.218591,2.08e-4 -0.395355,-0.03218 -0.174437,-0.03006 -0.307056,-0.102027 -0.132618,-0.07196 -0.223423,-0.190474 -0.08848,-0.120838 -0.130508,-0.297532 l 0.369676,-0.07244 q 0.02803,0.127872 0.08856,0.204554 0.06286,0.07435 0.148937,0.113805 0.0884,0.03945 0.202364,0.05329 0.113957,0.01152 0.246507,0.01139 0.134876,-1.29e-4 0.248805,-0.01884 0.116252,-0.02104 0.199923,-0.06763 0.08367,-0.04891 0.130107,-0.123372 0.04876,-0.07679 0.04866,-0.188407 -1.1e-4,-0.116272 -0.06064,-0.185977 -0.05821,-0.07203 -0.160571,-0.12077 -0.102365,-0.04874 -0.24425,-0.08348 -0.13956,-0.03475 -0.304708,-0.07878 -0.148866,-0.03939 -0.295413,-0.08576 -0.146547,-0.04637 -0.262889,-0.120672 -0.11402,-0.07663 -0.186219,-0.192834 -0.06987,-0.116206 -0.07005,-0.295265 -3.25e-4,-0.341839 0.245988,-0.535085 0.246312,-0.193246 0.713726,-0.193691 0.183709,-1.75e-4 0.344198,0.03455 0.160486,0.0324 0.28613,0.106697 0.125643,0.07197 0.209469,0.188162 0.08615,0.113864 0.118859,0.274288 l -0.376677,0.04687 q -0.01638,-0.104629 -0.06992,-0.169691 -0.05355,-0.06506 -0.132647,-0.102193 -0.07678,-0.03946 -0.174459,-0.05332 -0.09768,-0.01386 -0.204652,-0.01376 -0.569732,5.43e-4 -0.569398,0.351684 1.02e-4,0.10697 0.049,0.174361 0.05122,0.06506 0.141956,0.109161 0.09073,0.0441 0.216339,0.07653 0.125602,0.03011 0.276794,0.0695 0.151189,0.03706 0.309365,0.08575 0.160502,0.04868 0.290804,0.129948 0.132627,0.08126 0.216465,0.209083 0.08616,0.125492 0.08634,0.318503 z"
       style="font-style:normal;font-variant:normal;font-weight:normal;font-stretch:normal;font-size:4.76249981px;font-family:Cousine;-inkscape-font-specification:Cousine;letter-spacing:0px"
       id="path863" />
    <path
       d="m 24.84944,39.822002 0.314654,2.163148 -0.41422,0.06025 -0.314654,-2.163148 -0.60292,0.0877 -0.04753,-0.326774 0.60292,-0.0877 -0.0084,-0.05753 q -0.03381,-0.232423 -0.0069,-0.403174 0.02883,-0.173387 0.128825,-0.293679 0.09966,-0.122593 0.27443,-0.197363 0.177068,-0.07511 0.439408,-0.113265 0.06674,-0.0097 0.159453,-0.01849 0.09238,-0.01109 0.185437,-0.01757 0.09305,-0.0065 0.174935,-0.009 0.08418,-0.0028 0.133847,-6.71e-4 l 0.04854,0.333677 q -0.04243,-8.78e-4 -0.126274,0.0043 -0.08385,0.0051 -0.176567,0.01393 -0.09075,0.0062 -0.17393,0.0159 -0.08351,0.0074 -0.127237,0.01381 -0.15188,0.02209 -0.261293,0.06151 -0.109412,0.03941 -0.174013,0.112259 -0.0646,0.07284 -0.08569,0.186358 -0.01879,0.113178 0.0063,0.28577 l 0.0033,0.02301 1.129899,-0.164357 0.04753,0.326774 z"
       style="font-style:normal;font-variant:normal;font-weight:normal;font-stretch:normal;font-size:4.76249981px;font-family:Cousine;-inkscape-font-specification:Cousine;letter-spacing:0px"
       id="path865" />
    <path
       d="m 27.765924,41.4392 -0.197892,-0.666551 0.523878,-0.155533 0.197892,0.666551 z"
       style="font-style:normal;font-variant:normal;font-weight:normal;font-stretch:normal;font-size:4.76249981px;font-family:Cousine;-inkscape-font-specification:Cousine;letter-spacing:0px"
       id="path867" />
    <path
       d="m 31.187971,38.737677 q 0.138732,0.299656 0.170543,0.556561 0.03295,0.253817 -0.03161,0.463085 -0.06456,0.209267 -0.222396,0.372032 -0.156705,0.159677 -0.397274,0.271053 -0.230018,0.106491 -0.451048,0.121694 -0.218919,0.01423 -0.420254,-0.07194 -0.199225,-0.08714 -0.373557,-0.275504 -0.175309,-0.190469 -0.315017,-0.492235 -0.272579,-0.588761 -0.143465,-1.007297 0.130248,-0.421622 0.619827,-0.648283 0.514902,-0.238384 0.901823,-0.06132 0.386921,0.177064 0.66243,0.772155 z m -0.398838,0.18465 q -0.1231,-0.265892 -0.249638,-0.417439 -0.124428,-0.152524 -0.2546,-0.217824 -0.128062,-0.06628 -0.258468,-0.05459 -0.131383,0.0096 -0.26644,0.0721 -0.137166,0.0635 -0.232713,0.161554 -0.09652,0.09594 -0.132086,0.240531 -0.03443,0.141505 -0.0029,0.337016 0.03369,0.194534 0.153857,0.454096 0.1231,0.265892 0.252725,0.418572 0.130759,0.149593 0.260931,0.214893 0.132282,0.06432 0.261555,0.05572 0.131383,-0.0096 0.251668,-0.06526 0.137166,-0.0635 0.234667,-0.157333 0.09864,-0.09692 0.135173,-0.239398 0.03654,-0.142481 0.0019,-0.339126 -0.03255,-0.197622 -0.155654,-0.463514 z"
       style="font-style:normal;font-variant:normal;font-weight:normal;font-stretch:normal;font-size:4.76249981px;font-family:Cousine;-inkscape-font-specification:Cousine;letter-spacing:0px"
       id="path869" />
    <path
       d="m 32.864836,36.634493 q -0.10167,0.04422 -0.209256,0.100631 -0.106912,0.0532 -0.227604,0.132066 -0.163519,0.106856 -0.250694,0.258272 -0.08717,0.151416 -0.101667,0.324785 -0.01577,0.171422 0.03479,0.355063 0.0525,0.182369 0.164448,0.353674 l 0.646222,0.9889 -0.350398,0.228976 -0.891735,-1.364603 q -0.07124,-0.109013 -0.156699,-0.214286 -0.08546,-0.105273 -0.16591,-0.194376 -0.08172,-0.09105 -0.151398,-0.159413 -0.06968,-0.06836 -0.111886,-0.107451 l 0.332878,-0.217527 q 0.04416,0.03781 0.09722,0.08926 0.05501,0.05017 0.111886,0.107451 0.0556,0.05533 0.108589,0.115161 0.05299,0.05983 0.09377,0.113734 l 0.0097,-0.0064 q -0.02436,-0.156311 -0.02762,-0.293078 -0.0033,-0.136768 0.03398,-0.258329 0.03918,-0.122832 0.127919,-0.2336 0.08874,-0.110768 0.248362,-0.215079 0.109012,-0.07124 0.220492,-0.130197 0.11148,-0.05896 0.202144,-0.09876 z"
       style="font-style:normal;font-variant:normal;font-weight:normal;font-stretch:normal;font-size:4.76249981px;font-family:Cousine;-inkscape-font-specification:Cousine;letter-spacing:0px"
       id="path871" />
    <path
       d="m 36.117006,37.978609 q -0.15696,0.13844 -0.306523,0.211441 -0.147818,0.07146 -0.290394,0.08559 -0.139294,0.01433 -0.268731,-0.02344 -0.127693,-0.03931 -0.242658,-0.123954 l 0.282442,-0.326632 q 0.145014,0.104651 0.304207,0.08827 0.162475,-0.01617 0.322924,-0.15769 0.09941,-0.08768 0.151739,-0.186546 0.05407,-0.100406 0.05143,-0.215901 6.39e-4,-0.11529 -0.06201,-0.24608 -0.0609,-0.132328 -0.193188,-0.282312 l -0.298414,-0.338338 -0.0035,0.0031 q 0.02839,0.09899 0.03453,0.211405 0.0079,0.11088 -0.02076,0.226062 -0.0269,0.113643 -0.09513,0.229637 -0.06977,0.11425 -0.195339,0.225001 -0.177888,0.156898 -0.354218,0.210098 -0.17633,0.0532 -0.359614,0.0071 -0.183285,-0.04609 -0.377013,-0.188395 -0.191984,-0.143842 -0.399643,-0.379282 -0.201507,-0.228465 -0.321781,-0.438656 -0.11853,-0.21173 -0.144237,-0.406106 -0.0255,-0.197659 0.05013,-0.379092 0.07563,-0.181433 0.267471,-0.350637 0.197073,-0.173818 0.423351,-0.209058 0.226483,-0.03852 0.454171,0.06143 l 0.0052,-0.0046 q -0.03846,-0.0436 -0.0844,-0.0992 -0.0442,-0.05714 -0.08398,-0.105767 -0.03958,-0.05191 -0.06686,-0.08986 -0.02553,-0.0395 -0.0284,-0.04626 l 0.298225,-0.263035 q 0.0121,0.01723 0.0442,0.05714 0.03056,0.03816 0.07496,0.09202 0.0444,0.05386 0.09957,0.119925 0.05538,0.06278 0.115366,0.130801 l 1.270567,1.440549 q 0.349175,0.395889 0.339667,0.757757 -0.008,0.363611 -0.393395,0.703557 z m -1.056783,-2.091113 q -0.173819,-0.197072 -0.337194,-0.297932 -0.163375,-0.100859 -0.308508,-0.124787 -0.144927,-0.02721 -0.267712,0.01287 -0.121041,0.03854 -0.213474,0.120069 -0.116848,0.10306 -0.166926,0.218545 -0.05162,0.113741 -0.03051,0.250164 0.01956,0.134679 0.114923,0.295529 0.09382,0.159106 0.267639,0.356178 0.179972,0.204049 0.326113,0.317008 0.146141,0.112959 0.272501,0.147243 0.128104,0.03274 0.242581,-0.0062 0.114682,-0.04224 0.229787,-0.143759 0.09243,-0.08152 0.149074,-0.196598 0.0551,-0.116818 0.05103,-0.262059 -0.0041,-0.14524 -0.08066,-0.316446 -0.07638,-0.174488 -0.248661,-0.369817 z"
       style="font-style:normal;font-variant:normal;font-weight:normal;font-stretch:normal;font-size:4.76249981px;font-family:Cousine;-inkscape-font-specification:Cousine;letter-spacing:0px"
       id="path873" />
  </g>
</svg>
